-------------------------------------------------------------------------------
Test set: com.valtech.cq.slingmodelstest.SimpleUnitTest
-------------------------------------------------------------------------------
Tests run: 1, Failures: 0, Errors: 0, Skipped: 0, Time elapsed: 0.002 sec - in com.valtech.cq.slingmodelstest.SimpleUnitTest
