/Users/sg/ws/cq-tools/slingmodelstest/bundle/src/main/java/com/valtech/cq/slingmodelstest/impl/SiteConfigInjector.java
/Users/sg/ws/cq-tools/slingmodelstest/bundle/src/main/java/com/valtech/cq/slingmodelstest/HelloService.java
/Users/sg/ws/cq-tools/slingmodelstest/bundle/src/main/java/com/valtech/cq/slingmodelstest/impl/HelloServiceImpl.java
/Users/sg/ws/cq-tools/slingmodelstest/bundle/src/main/java/com/valtech/cq/slingmodelstest/ToolbarConfig.java
/Users/sg/ws/cq-tools/slingmodelstest/bundle/src/main/java/com/valtech/cq/slingmodelstest/package-info.java
/Users/sg/ws/cq-tools/slingmodelstest/bundle/src/main/java/com/valtech/cq/slingmodelstest/impl/filters/LoggingFilter.java
/Users/sg/ws/cq-tools/slingmodelstest/bundle/src/main/java/com/valtech/cq/slingmodelstest/HelloBean.java
